<?xml version="1.0" encoding="UTF-8"?>
<svg width="256" height="256" version="1.1"
     xmlns="http://www.w3.org/2000/svg"
     xmlns:xlink="http://www.w3.org/1999/xlink">
  <defs>
    <linearGradient id="Gradient" x1="0" x2="0" y1="0" y2="1">
      <stop offset="0%" style="stop-color:#ED333B;stop-opacity:1" />
      <stop offset="100%" style="stop-color:#ED333B;stop-opacity:1" />
    </linearGradient>
    <filter id="alpha-to-white">
      <feColorMatrix in="SourceGraphic" type="matrix"
                     values="0 0 0 1 0
                             0 0 0 1 0
                             0 0 0 1 0
                             0 0 0 1 0"/>
    </filter>
    <g id="child-svg">
<svg
   height="16px"
   viewBox="0 0 16 16"
   width="16px"
   version="1.1"
   id="svg8"
   sodipodi:docname="org.gabmus.mdwriter-symbolic.svg"
   inkscape:version="1.1.2 (0a00cf5339, 2022-02-04, custom)"
   xmlns:inkscape="http://www.inkscape.org/namespaces/inkscape"
   xmlns:sodipodi="http://sodipodi.sourceforge.net/DTD/sodipodi-0.dtd"
   xmlns="http://www.w3.org/2000/svg"
   xmlns:svg="http://www.w3.org/2000/svg">
  <defs
     id="defs12" />
  <sodipodi:namedview
     id="namedview10"
     pagecolor="#505050"
     bordercolor="#eeeeee"
     borderopacity="1"
     inkscape:pageshadow="0"
     inkscape:pageopacity="0"
     inkscape:pagecheckerboard="0"
     showgrid="true"
     inkscape:snap-bbox="true"
     inkscape:bbox-nodes="true"
     inkscape:object-nodes="true"
     inkscape:zoom="32"
     inkscape:cx="9.234375"
     inkscape:cy="6.8125"
     inkscape:window-width="2560"
     inkscape:window-height="1371"
     inkscape:window-x="0"
     inkscape:window-y="0"
     inkscape:window-maximized="1"
     inkscape:current-layer="svg8">
    <inkscape:grid
       type="xygrid"
       id="grid1097" />
  </sodipodi:namedview>
  <path
     d="M 13.949219,2.464844"
     id="path993" />
  <path
     id="path1093"
     style="fill:#000000"
     d="M 4 0 C 2.355469 0 1 1.355469 1 3 L 1 13 C 1 14.644531 2.355469 16 4 16 L 7 16 L 8 16 L 12 16 C 13.644531 16 15 14.644531 15 13 L 15 3 C 15 1.355469 13.644531 0 12 0 L 11 0 L 5 0 L 4 0 z M 3 4 L 13 4 L 13 5 L 13 6 L 13 13 C 13 13.570312 12.570312 14 12 14 L 8 14 L 7 14 L 4 14 C 3.429688 14 3 13.570312 3 13 L 3 6 L 3 5 L 3 4 z " />
  <path
     d="M 2.050781,2.464844"
     id="path1099" />
  <path
     style="fill:#000000;stroke-width:1.86111;stroke-linecap:round;stroke-linejoin:round;paint-order:fill markers stroke"
     d="M 7,5 V 8 H 5 l 3,4 3,-4 H 9 V 5 Z"
     id="path3860"
     sodipodi:nodetypes="cccccccc" />
</svg>
</g>
  </defs>
  <rect
      width="256"
      height="256"
      fill="url(#Gradient)"
      ry="0"
      x="0"
      y="0" />
  <use xlink:href="#child-svg" filter="url(#alpha-to-white)"
       transform="matrix(8,0,0,8,64,64)" />
</svg>
