<?xml version="1.0" encoding="UTF-8" standalone="no"?>
<svg
   height="16px"
   viewBox="0 0 16 16"
   width="16px"
   version="1.1"
   id="svg8"
   sodipodi:docname="code-symbolic (copy).svg"
   inkscape:version="1.1.2 (0a00cf5339, 2022-02-04, custom)"
   xmlns:inkscape="http://www.inkscape.org/namespaces/inkscape"
   xmlns:sodipodi="http://sodipodi.sourceforge.net/DTD/sodipodi-0.dtd"
   xmlns="http://www.w3.org/2000/svg"
   xmlns:svg="http://www.w3.org/2000/svg">
  <defs
     id="defs12" />
  <sodipodi:namedview
     id="namedview10"
     pagecolor="#939393"
     bordercolor="#eeeeee"
     borderopacity="1"
     inkscape:pageshadow="0"
     inkscape:pageopacity="0"
     inkscape:pagecheckerboard="0"
     showgrid="true"
     inkscape:snap-bbox="true"
     inkscape:bbox-nodes="true"
     inkscape:zoom="32"
     inkscape:cx="12.921875"
     inkscape:cy="2.96875"
     inkscape:window-width="2560"
     inkscape:window-height="1371"
     inkscape:window-x="0"
     inkscape:window-y="0"
     inkscape:window-maximized="1"
     inkscape:current-layer="svg8">
    <inkscape:grid
       type="xygrid"
       id="grid9265" />
  </sodipodi:namedview>
  <g
     aria-label=""
     id="text8333"
     style="font-size:31.1169px;line-height:1.25;letter-spacing:0px;word-spacing:0px;stroke-width:0.416743"
     transform="matrix(0.74730622,0,0,0.75650949,0.18911342,4.5332339)">
    <path
       d="m 9.7303508,6.025992 v 4.330233 q 0,0.896434 -0.6381395,1.534573 -0.6229458,0.622946 -1.5193799,0.622946 H 3.2425988 q -0.8964341,0 -1.5345736,-0.622946 Q 1.0850794,11.252659 1.0850794,10.356225 V 2.4250617 q 0,-1.56496126 0.7748838,-2.88682174 Q 2.6348469,-1.7988143 3.9567074,-2.573698 5.2937616,-3.3485818 6.8435291,-3.3485818 h 0.7293023 q 0.2886822,0 0.5013954,0.2127132 0.2127132,0.2127132 0.2127132,0.5165892 v 1.428217 q 0,0.303876 -0.2127132,0.51658918 -0.2127132,0.21271318 -0.5013954,0.21271318 H 6.8435291 q -1.1851163,0 -2.035969,0.85085272 Q 3.9719012,1.2247516 3.9719012,2.4250617 v 0.3646512 q 0,0.4558139 0.3038759,0.7596899 0.3190698,0.303876 0.7748838,0.303876 h 2.5221705 q 0.8964341,0 1.5193799,0.6381395 0.6381395,0.6381395 0.6381395,1.5345737 z m 10.0886822,0 v 4.330233 q 0,0.896434 -0.638139,1.534573 -0.63814,0.622946 -1.534574,0.622946 h -4.315039 q -0.896434,0 -1.534574,-0.622946 -0.622945,-0.638139 -0.622945,-1.534573 V 2.4250617 q 0,-1.56496126 0.774883,-2.88682174 0.774884,-1.33705426 2.096745,-2.11193796 1.337054,-0.7748838 2.886821,-0.7748838 h 0.714109 q 0.303876,0 0.516589,0.2127132 0.212713,0.2127132 0.212713,0.5165892 v 1.428217 q 0,0.303876 -0.212713,0.51658918 -0.212713,0.21271318 -0.516589,0.21271318 h -0.714109 q -1.185116,0 -2.035969,0.85085272 -0.835659,0.83565892 -0.835659,2.03596902 v 0.3646512 q 0,0.4558139 0.303876,0.7596899 0.31907,0.303876 0.75969,0.303876 h 2.522171 q 0.896434,0 1.534574,0.6381395 0.638139,0.6381395 0.638139,1.5345737 z"
       id="path9267" />
  </g>
</svg>
