<?xml version="1.0" encoding="UTF-8" standalone="no"?>
<svg
   height="16px"
   viewBox="0 0 16 16"
   width="16px"
   version="1.1"
   id="svg8"
   sodipodi:docname="separator-symbolic.svg"
   inkscape:version="1.1.2 (0a00cf5339, 2022-02-04, custom)"
   xmlns:inkscape="http://www.inkscape.org/namespaces/inkscape"
   xmlns:sodipodi="http://sodipodi.sourceforge.net/DTD/sodipodi-0.dtd"
   xmlns="http://www.w3.org/2000/svg"
   xmlns:svg="http://www.w3.org/2000/svg">
  <defs
     id="defs12" />
  <sodipodi:namedview
     id="namedview10"
     pagecolor="#939393"
     bordercolor="#eeeeee"
     borderopacity="1"
     inkscape:pageshadow="0"
     inkscape:pageopacity="0"
     inkscape:pagecheckerboard="0"
     showgrid="true"
     inkscape:snap-bbox="true"
     inkscape:bbox-nodes="true"
     inkscape:zoom="32"
     inkscape:cx="13.859375"
     inkscape:cy="3.21875"
     inkscape:window-width="2560"
     inkscape:window-height="1371"
     inkscape:window-x="0"
     inkscape:window-y="0"
     inkscape:window-maximized="1"
     inkscape:current-layer="svg8"
     inkscape:object-nodes="false">
    <inkscape:grid
       type="xygrid"
       id="grid9265" />
  </sodipodi:namedview>
  <path
     id="rect844"
     style="fill:#000000;fill-opacity:1;stroke:none;stroke-width:36.118;stroke-linecap:round;stroke-linejoin:round;paint-order:fill markers stroke"
     d="M 1 5 L 1 11 L 3 11 L 3 9 L 13 9 L 13 11 L 15 11 L 15 5 L 13 5 L 13 7 L 3 7 L 3 5 L 1 5 z " />
</svg>
